{
  "plugins": [
    {
      "name": "@zeplin/cli-connect-react-plugin"
    },
    {
      "name": "@zeplin/cli-connect-storybook-plugin",
      "config": {
        "url": "http://localhost:9009/",
        "format": "new"
      }
    }
  ],
  "projects": ["60d21da9592f2d1097faadda"],
  "components": [
    {
      "path": "components\\UI\\templates\\sections\\pricing\\InterchangeRate.tsx",
      "zeplinIds": ["610459e65988027c7122a832"]
    }
  ],
  "bitbucket": {
    "repository": "abramovc/payline-client-2"
  }
}
